module gitlab.com/qomarullah/template

go 1.14

require (
	github.com/go-playground/universal-translator v0.17.0 // indirect
	github.com/go-sql-driver/mysql v1.5.0 // indirect
	github.com/labstack/echo v3.3.10+incompatible
	github.com/labstack/gommon v0.3.0 // indirect
	github.com/leodido/go-urn v1.2.1 // indirect
	github.com/sirupsen/logrus v1.2.0
	github.com/spf13/viper v1.7.1 // indirect
	golang.org/x/sync v0.0.0-20190423024810-112230192c58
	gopkg.in/go-playground/validator.v9 v9.31.0
)
